{
    "turnDuration": 60,
    "minDeckSize": 10,
    "maxDeckSize": 10,
    "gameStartActions": [
        {
            "zoneId": 0,
            "name": "Shuffle cards",
            "target": "AllPlayers",
            "$type": "CCGKit.ShuffleCardsAction"
        },
        {
            "originZoneId": 0,
            "destinationZoneId": 1,
            "numCards": 3,
            "name": "Move cards",
            "target": "AllPlayers",
            "$type": "CCGKit.MoveCardsAction"
        },
        {
            "statId": 1,
            "value": {
                "constant": 1,
                "$type": "CCGKit.ConstantValue"
            },
            "name": "Set player stat",
            "target": "AllPlayers",
            "$type": "CCGKit.SetPlayerStatAction"
        }
    ],
    "turnStartActions": [
        {
            "originZoneId": 0,
            "destinationZoneId": 1,
            "numCards": 1,
            "name": "Move cards",
            "target": "CurrentPlayer",
            "$type": "CCGKit.MoveCardsAction"
        },
        {
            "statId": 1,
            "value": {
                "constant": 2,
                "$type": "CCGKit.ConstantValue"
            },
            "name": "Increase player stat",
            "target": "CurrentPlayer",
            "$type": "CCGKit.IncreasePlayerStatAction"
        }
    ],
    "turnEndActions": [],
    "endGameConditions": [
        {
            "statId": 0,
            "op": "LessThanOrEqualTo",
            "value": 0,
            "type": "Loss",
            "$type": "CCGKit.PlayerStatEndGameCondition"
        }
    ]
}
