[
    {
        "name": "Life",
        "baseValue": 10,
        "originalValue": 10,
        "minValue": 0,
        "maxValue": 25,
        "id": 0,
        "$type": "CCGKit.PlayerStat"
    },
    {
        "name": "Mana",
        "baseValue": 0,
        "originalValue": 0,
        "minValue": 0,
        "maxValue": 10,
        "id": 1,
        "$type": "CCGKit.PlayerStat"
    }
]
