%YAML 1.1
%TAG !u! tag:unity3d.com,2011:
--- !u!162 &1
EditorUserSettings:
  m_ObjectHideFlags: 0
  serializedVersion: 4
  m_ConfigSettings:
    RecentlyUsedSceneGuid-0:
      value: 550205575c5150580e5e5c7216275944144e4e7d7a7025687f2b4a37b6b9366b
      flags: 0
    RecentlyUsedSceneGuid-1:
      value: 02500354560351085b56587b11275d44444f4d2e747a7e61792f4964b0e5356d
      flags: 0
    RecentlyUsedSceneGuid-2:
      value: 55540156520d5d5e0b595f2745770a49454f1c73282e7065757e4d67b3b53239
      flags: 0
    RecentlyUsedSceneGuid-3:
      value: 5b01005604545a0f5a0f5a2647725c4413151d2e747974667c791b60b4b53169
      flags: 0
    RecentlyUsedSceneGuid-4:
      value: 0603550001015f0d545e5871417b5a4417154d78787c76617d7e4567b4b7356a
      flags: 0
    RecentlyUsedSceneGuid-5:
      value: 5402525e030550035e5d5d7640705b44104e1d297c797132287e1836e7b2376c
      flags: 0
    RecentlyUsedSceneGuid-6:
      value: 05500c0300060b0e5957547b14210a444f161a792d2b2768292f4864b1b5606a
      flags: 0
    RecentlyUsedSceneGuid-7:
      value: 0205575255515f0f5a0f082742775b12144e192b7f2e22327f7d4864b4e6323c
      flags: 0
    RecentlyUsedSceneGuid-8:
      value: 0004525600040b5f0c56082440770f40424f4a73287b7732752f1e6be4b2313c
      flags: 0
    RecentlyUsedSceneGuid-9:
      value: 5155560204005b03595809241477061444161a2b29707f327a7d1963b7b0653e
      flags: 0
    vcSharedLogLevel:
      value: 0d5e400f0650
      flags: 0
  m_VCAutomaticAdd: 1
  m_VCDebugCom: 0
  m_VCDebugCmd: 0
  m_VCDebugOut: 0
  m_SemanticMergeMode: 2
  m_DesiredImportWorkerCount: 3
  m_StandbyImportWorkerCount: 2
  m_IdleImportWorkerShutdownDelay: 60000
  m_VCShowFailedCheckout: 1
  m_VCOverwriteFailedCheckoutAssets: 1
  m_VCProjectOverlayIcons: 1
  m_VCHierarchyOverlayIcons: 1
  m_VCOtherOverlayIcons: 1
  m_VCAllowAsyncUpdate: 1
  m_ArtifactGarbageCollection: 1
